<!DOCTYPE SceneVersion>
<SceneVersion VersionName="CandyScene1" ID="1">
 <Element Name="Drawing" ID="1" Folder="Drawing">
  <Drawing Key="" Name="1" Version="1"/>
 </Element>
 <Element Name="scene1" ID="2" Folder="scene1">
  <Drawing Key="" Name="1" Version="1"/>
 </Element>
 <Element Name="Drawing_1" ID="3" Folder="Drawing_1">
  <Drawing Key="" Name="1" Version="1"/>
  <Drawing Key="" Name="2" Version="1"/>
  <Drawing Key="" Name="3" Version="1"/>
  <Drawing Key="" Name="4" Version="1"/>
  <Drawing Key="" Name="5" Version="1"/>
  <Drawing Key="" Name="6" Version="1"/>
  <Drawing Key="" Name="7" Version="1"/>
  <Drawing Key="" Name="8" Version="1"/>
  <Drawing Key="" Name="9" Version="1"/>
  <Drawing Key="" Name="10" Version="1"/>
  <Drawing Key="" Name="11" Version="1"/>
  <Drawing Key="" Name="12" Version="1"/>
 </Element>
</SceneVersion>
