<!DOCTYPE SceneVersion>
<SceneVersion VersionName="CandyScene1-2" ID="1">
 <Element Name="Drawing" ID="1" Folder="Drawing">
  <Drawing Key="" Name="1" Version="1"/>
 </Element>
 <Element Name="scene1" ID="2" Folder="scene1">
  <Drawing Key="" Name="1" Version="1"/>
 </Element>
 <Element Name="candycane" ID="3" Folder="candycane">
  <Drawing Key="" Name="1" Version="1"/>
  <Drawing Key="" Name="2" Version="1"/>
  <Drawing Key="" Name="3" Version="1"/>
  <Drawing Key="" Name="4" Version="1"/>
  <Drawing Key="" Name="5" Version="1"/>
  <Drawing Key="" Name="6" Version="1"/>
  <Drawing Key="" Name="7" Version="1"/>
  <Drawing Key="" Name="8" Version="1"/>
  <Drawing Key="" Name="9" Version="1"/>
  <Drawing Key="" Name="10" Version="1"/>
  <Drawing Key="" Name="11" Version="1"/>
  <Drawing Key="" Name="12" Version="1"/>
  <Drawing Key="" Name="13" Version="1"/>
  <Drawing Key="" Name="14" Version="1"/>
  <Drawing Key="" Name="15" Version="1"/>
  <Drawing Key="" Name="16" Version="1"/>
  <Drawing Key="" Name="17" Version="1"/>
  <Drawing Key="" Name="18" Version="1"/>
  <Drawing Key="" Name="19" Version="1"/>
  <Drawing Key="" Name="20" Version="1"/>
  <Drawing Key="" Name="21" Version="1"/>
  <Drawing Key="" Name="22" Version="1"/>
  <Drawing Key="" Name="23" Version="1"/>
  <Drawing Key="" Name="24" Version="1"/>
  <Drawing Key="" Name="25" Version="1"/>
  <Drawing Key="" Name="26" Version="1"/>
  <Drawing Key="" Name="27" Version="1"/>
  <Drawing Key="" Name="28" Version="1"/>
  <Drawing Key="" Name="29" Version="1"/>
  <Drawing Key="" Name="30" Version="1"/>
  <Drawing Key="" Name="31" Version="1"/>
  <Drawing Key="" Name="32" Version="1"/>
  <Drawing Key="" Name="33" Version="1"/>
  <Drawing Key="" Name="34" Version="1"/>
 </Element>
 <Element Name="Drawing_2" ID="4" Folder="Drawing_2">
  <Drawing Key="" Name="1" Version="1"/>
 </Element>
 <Element Name="cupcake" ID="5" Folder="cupcake">
  <Drawing Key="" Name="1" Version="1"/>
  <Drawing Key="" Name="2" Version="1"/>
  <Drawing Key="" Name="14" Version="1"/>
  <Drawing Key="" Name="7" Version="1"/>
  <Drawing Key="" Name="9" Version="1"/>
  <Drawing Key="" Name="13" Version="1"/>
  <Drawing Key="" Name="10" Version="1"/>
  <Drawing Key="" Name="11" Version="1"/>
  <Drawing Key="" Name="12" Version="1"/>
  <Drawing Key="" Name="8" Version="1"/>
  <Drawing Key="" Name="3" Version="1"/>
  <Drawing Key="" Name="4" Version="1"/>
  <Drawing Key="" Name="5" Version="1"/>
  <Drawing Key="" Name="6" Version="1"/>
  <Drawing Key="" Name="15" Version="1"/>
  <Drawing Key="" Name="16" Version="1"/>
  <Drawing Key="" Name="17" Version="1"/>
  <Drawing Key="" Name="18" Version="1"/>
  <Drawing Key="" Name="19" Version="1"/>
  <Drawing Key="" Name="20" Version="1"/>
  <Drawing Key="" Name="21" Version="1"/>
  <Drawing Key="" Name="22" Version="1"/>
  <Drawing Key="" Name="23" Version="1"/>
  <Drawing Key="" Name="24" Version="1"/>
  <Drawing Key="" Name="25" Version="1"/>
  <Drawing Key="" Name="26" Version="1"/>
  <Drawing Key="" Name="27" Version="1"/>
  <Drawing Key="" Name="28" Version="1"/>
  <Drawing Key="" Name="29" Version="1"/>
 </Element>
 <Element Name="Drawing_1" ID="6" Folder="Drawing_1.6">
  <Drawing Key="" Name="1" Version="1"/>
  <Drawing Key="" Name="2" Version="1"/>
  <Drawing Key="" Name="3" Version="1"/>
  <Drawing Key="" Name="4" Version="1"/>
  <Drawing Key="" Name="5" Version="1"/>
  <Drawing Key="" Name="6" Version="1"/>
  <Drawing Key="" Name="7" Version="1"/>
  <Drawing Key="" Name="8" Version="1"/>
  <Drawing Key="" Name="9" Version="1"/>
  <Drawing Key="" Name="10" Version="1"/>
  <Drawing Key="" Name="11" Version="1"/>
  <Drawing Key="" Name="12" Version="1"/>
  <Drawing Key="" Name="13" Version="1"/>
  <Drawing Key="" Name="14" Version="1"/>
 </Element>
 <Element Name="Drawing_3" ID="7" Folder="Drawing_3.7">
  <Drawing Key="" Name="1" Version="1"/>
 </Element>
 <Element Name="cupcake-cleanup" ID="8" Folder="cupcake-cleanup">
  <Drawing Key="" Name="1" Version="1"/>
  <Drawing Key="" Name="2" Version="1"/>
  <Drawing Key="" Name="3" Version="1"/>
  <Drawing Key="" Name="4" Version="1"/>
 </Element>
</SceneVersion>
